Running PK models with nlmixr
…
#> tv          log V  3.45 0.0464 1.35       31.5 (28.7, 34.5)     13.6
#> add.err           0.697                               0.697         
#>         Shrink(SD)%
#> tka         0.241% 
#> tcl          3.78% 
#> tv           10.0% 
#> add.err             
#> 
#>   Covariance Type ($covMethod): nlme
#>   No correlations in between subject variability (BSV) matrix
#>   Full BSV covariance ($omega) or correlation ($omegaR; diagonals=SDs) 
#>   Distribution stats (mean/skewness/kurtosis/p-value) available in $shrink 
#> 
#> ── Fit Data (object is a modified tibble): ──────────────────────────────── 
#> # A tibble: 132 x 18
#>   ID     TIME    DV  EVID  PRED    RES IPRED   IRES  IWRES eta.ka eta.cl
#>   <fct> <dbl> <dbl> <int> <dbl>  <dbl> <dbl>  <dbl>  <dbl>  <dbl>  <dbl>
#> 1 1     0      0.74     0  0     0.74   0     0.74   1.06   0.101 -0.479
#> 2 1     0.25   2.84     0  3.25 -0.410  3.84 -1.00  -1.44   0.101 -0.479
#> 3 1     0.570  6.57     0  5.83  0.744  6.78 -0.212 -0.305  0.101 -0.479
#> # … with 129 more rows, and 7 more variables: eta.v <dbl>, rx1c <dbl>,
#> #   ka <dbl>, cl <dbl>, v <dbl>, depot <dbl>, central <dbl>
…
#> tv          Log V  3.45 0.0469 1.36       31.5 (28.7, 34.5)     14.0
#> add.err           0.692                               0.692         
#>         Shrink(SD)%
#> tka         0.411% 
#> tcl          3.36% 
#> tv           10.0% 
#> add.err             
#> 
#>   Covariance Type ($covMethod): linFim
#>   No correlations in between subject variability (BSV) matrix
#>   Full BSV covariance ($omega) or correlation ($omegaR; diagonals=SDs) 
#>   Distribution stats (mean/skewness/kurtosis/p-value) available in $shrink 
#> 
#> ── Fit Data (object is a modified tibble): ──────────────────────────────── 
#> # A tibble: 132 x 18
#>   ID     TIME    DV  EVID  PRED    RES IPRED   IRES  IWRES eta.ka eta.cl
#>   <fct> <dbl> <dbl> <int> <dbl>  <dbl> <dbl>  <dbl>  <dbl>  <dbl>  <dbl>
#> 1 1     0      0.74     0  0     0.74   0     0.74   1.07   0.105 -0.487
#> 2 1     0.25   2.84     0  3.26 -0.423  3.86 -1.02  -1.48   0.105 -0.487
#> 3 1     0.570  6.57     0  5.84  0.725  6.81 -0.235 -0.340  0.105 -0.487
#> # … with 129 more rows, and 7 more variables: eta.v <dbl>, ka <dbl>,
#> #   cl <dbl>, v <dbl>, cp <dbl>, depot <dbl>, center <dbl>
…
